…
```yaml
type: "TwoRows"
key: "acaf735862"
```

`@part1`
```
lda_topics <- lda_out %>% 
  tidy(matrix = "beta")
```{{1}}
```
lda_topics %>% 
  arrange(desc(beta))

# A tibble: 9,634 x 3
   topic term       beta
   <int> <chr>     <dbl>
 1     2 roomba   0.0583
 2     2 clean    0.0308
 3     1 hair     0.0242
 4     1 time     0.0239
 5     1 floors   0.0200
 6     2 house    0.0199
 7     2 cleaning 0.0194
 8     1 day      0.0166
 9     2 floor    0.0164
10     2 vacuum   0.0147
# ... with 9,624 more rows
…
